{
  "project_info": {
    "project_number": "407171149228",
    "firebase_url": "https://finalproject-43cf1.firebaseio.com",
    "project_id": "finalproject-43cf1",
    "storage_bucket": "finalproject-43cf1.appspot.com"
  },
  "client": [
    {
      "client_info": {
        "mobilesdk_app_id": "1:407171149228:android:0c51b43b689e969f9ede09",
        "android_client_info": {
          "package_name": "com.finalproject"
        }
      },
      "oauth_client": [
        {
          "client_id": "407171149228-6vcdr1nch651vvl23v14cldt4dd1alo7.apps.googleusercontent.com",
          "client_type": 3
        }
      ],
      "api_key": [
        {
          "current_key": "AIzaSyCdjyVRT6Ie1q7fwwRpSDLZuV-n1eMgXTg"
        }
      ],
      "services": {
        "appinvite_service": {
          "other_platform_oauth_client": [
            {
              "client_id": "407171149228-6vcdr1nch651vvl23v14cldt4dd1alo7.apps.googleusercontent.com",
              "client_type": 3
            }
          ]
        }
      }
    },
    {
      "client_info": {
        "mobilesdk_app_id": "1:407171149228:android:4bedaa54483832809ede09",
        "android_client_info": {
          "package_name": "com.finalprojectdti"
        }
      },
      "oauth_client": [
        {
          "client_id": "407171149228-6vcdr1nch651vvl23v14cldt4dd1alo7.apps.googleusercontent.com",
          "client_type": 3
        }
      ],
      "api_key": [
        {
          "current_key": "AIzaSyCdjyVRT6Ie1q7fwwRpSDLZuV-n1eMgXTg"
        }
      ],
      "services": {
        "appinvite_service": {
          "other_platform_oauth_client": [
            {
              "client_id": "407171149228-6vcdr1nch651vvl23v14cldt4dd1alo7.apps.googleusercontent.com",
              "client_type": 3
            }
          ]
        }
      }
    },
    {
      "client_info": {
        "mobilesdk_app_id": "1:407171149228:android:22df310e7ff496109ede09",
        "android_client_info": {
          "package_name": "com.uploaddemo"
        }
      },
      "oauth_client": [
        {
          "client_id": "407171149228-6vcdr1nch651vvl23v14cldt4dd1alo7.apps.googleusercontent.com",
          "client_type": 3
        }
      ],
      "api_key": [
        {
          "current_key": "AIzaSyCdjyVRT6Ie1q7fwwRpSDLZuV-n1eMgXTg"
        }
      ],
      "services": {
        "appinvite_service": {
          "other_platform_oauth_client": [
            {
              "client_id": "407171149228-6vcdr1nch651vvl23v14cldt4dd1alo7.apps.googleusercontent.com",
              "client_type": 3
            }
          ]
        }
      }
    }
  ],
  "configuration_version": "1"
}